i:\nick\documents\visualstudio\cudaneuralnetwork\cudaneuralnetwork\release\vc120.pdb
i:\nick\documents\visualstudio\cudaneuralnetwork\cudaneuralnetwork\release\texturemap.obj
i:\nick\documents\visualstudio\cudaneuralnetwork\cudaneuralnetwork\release\main.obj
i:\nick\documents\visualstudio\cudaneuralnetwork\cudaneuralnetwork\release\genalg.obj
i:\nick\documents\visualstudio\cudaneuralnetwork\cudaneuralnetwork\release\game.obj
i:\nick\documents\visualstudio\cudaneuralnetwork\release\cudaneuralnetwork.exe
i:\nick\documents\visualstudio\cudaneuralnetwork\release\cudaneuralnetwork.pdb
i:\nick\documents\visualstudio\cudaneuralnetwork\cudaneuralnetwork\release\neuralnetkernel.cu.cache
i:\nick\documents\visualstudio\cudaneuralnetwork\cudaneuralnetwork\release\preparefornn.cu.cache
i:\nick\documents\visualstudio\cudaneuralnetwork\cudaneuralnetwork\release\neuralnetkernel.cu.obj
i:\nick\documents\visualstudio\cudaneuralnetwork\cudaneuralnetwork\release\preparefornn.cu.obj
i:\nick\documents\visualstudio\cudaneuralnetwork\cudaneuralnetwork\release\cudaneur.2d32cca3.tlog\cl.command.1.tlog
i:\nick\documents\visualstudio\cudaneuralnetwork\cudaneuralnetwork\release\cudaneur.2d32cca3.tlog\cl.read.1.tlog
i:\nick\documents\visualstudio\cudaneuralnetwork\cudaneuralnetwork\release\cudaneur.2d32cca3.tlog\cl.write.1.tlog
i:\nick\documents\visualstudio\cudaneuralnetwork\cudaneuralnetwork\release\cudaneur.2d32cca3.tlog\link.command.1.tlog
i:\nick\documents\visualstudio\cudaneuralnetwork\cudaneuralnetwork\release\cudaneur.2d32cca3.tlog\link.read.1.tlog
i:\nick\documents\visualstudio\cudaneuralnetwork\cudaneuralnetwork\release\cudaneur.2d32cca3.tlog\link.write.1.tlog
